8 -96 24 -80 -96 -88 -104 -104 328
112 -88 -48 -64 648
96 -64 816
176 -24 -104 -72 -32 -112 424
96 -80 -120 -104 -24 -24 -80 408
-40 152 -88 -112 568
72 -48 -56 -104 -8 -88 -64 -32 456
-88 32 -32 -96 -112 -88 496
136 -80 -64 688
-24 160 -112 -112 -72 -96 368
-24 24 -96 -48 768
-24 32 -104 -112 -72 608
112 -96 -56 -16 -80 592
48 -96 -104 -120 592
160 -16 -88 -64 632
48 -120 -8 -56 -56 -112 -120 416
-32 -88 -88 -40 -56 648
24 -16 32 -112 776
24 -48 -56 -88 744
72 -96 -120 -72 -112 480
