-32 -32 912
-80 904
48 -48 -40 -32 -72 712
-64 -16 -40 -80 -80 -64 -8 -48 -80 -56 -16 352
-56 -16 -16 -56 -24 -72 -24 672
-48 8 -8 -48 -64 -56 -48 -16 -80 -64 -72 -72 -16 288
112 -48 -40 -56 -56 -56 -48 -80 -64 -32 320
64 -80 -24 -32 -24 -56 -72 -72 -56 -80 -64 -72 200
-72 -24 -72 -48 -64 -32 632
40 -64 -72 -16 -48 -8 -24 -72 584
-40 -24 -8 16 -16 -8 -8 -48 -32 -80 -56 -80 480
-48 -56 -80 -64 -80 -64 -48 -40 -24 -56 -56 -32 -8 232
-8 24 -48 -48 832
48 -16 -80 -64 752
56 -56 -24 -56 -64 -80 608
-16 -8 -64 -48 -40 776
-32 952
64 -8 -64 -72 -64 -56 -40 -80 480
16 -40 -24 888
-8 -40 16 -24 -64 -24 -32 -16 -64 -16 608
