20

9
7
-1
1
-1
3
5
9
-1
5
-1
6
10
5
4
-1
2
-1
10
2
2
-1

8
2
9
-1
4
6
-1
5
7

9
-1
1
3
-2
9
2
3
-1
5
-1

6
4
-1
-1
8
1
-2
-1
5
-1
5

12
-1
4
-1
2
2
-2
-1
1
2

8
-1
5
6
-1
5
6
-1
5
6
-2
7

15
4
-2
8
5
-1

8
5
9
-3
5

5
-1
7
3
-1
6
4

4
8
9
10
8
-1
6

5
3
-1
-1
8

12
15
8
-1
4
8
-2
1

4
7
5
-3
5
6
-1
-1
4

25
7
8
2
-2
-1
7
-2
7

5
7
13
-1
-1
2
-1

13
4
-2
-1
3
8
6
8
-2
-1
6

7
5
8
-3
-2
1
4
-2

7
8
2
-1
-1
6
7
-2

5
7
8
-1
4
-1
8
5
-2

7
9
2
-1
-2
6
7
