24 -8 8 -80 -64 -72 -72 -8 -80 -64 -48 -32 -80 -48 -40 144
-32 8 -24 -56 -80 -64 -24 -80 -72 -56 -32 -64 -40 -32 -16 192
48 -72 -48 -40 -72 -80 -64 -80 -56 -72 -80 -24 -64 -64 16
-48 8 -24 -48 -32 -32 -48 -56 -24 -80 -64 440
-40 -72 -48 -80 -32 -64 -64 -80 448
24 -40 -48 -72 -16 -40 -64 -24 -56 -64 -16 -80 -32 312
64 -32 -48 -48 -80 -8 -32 624
80 -8 888
-8 -64 -32 -56 -40 -40 -40 656
56 -32 -56 -48 -72 -56 -8 608
-8 -16 -56 888
-32 -40 -56 -8 824
-40 8 -16 -8 -64 -48 -40 712
992
8 -24 16 -16 8 -64 -24 -40 -72 -48 592
-56 48 -64 -80 -64 -48 -72 -32 -64 -72 312
-40 944
8 -40 -40 -16 -72 -72 -56 -64 -16 -72 -80 -40 320
-48 16 -72 -80 744
-16 128 -80 -40 -48 -48 -72 -80 416
