56 -24 -96 792
64 -144 768
96 -696 184
-776 -56 144
-104 -136 -64 -112 208 -8 312
-296 688
-120 -56 800
-8 64 -40 -32 -24 -16 56 -24 -32 -40 576
-96 616 -120 136
648 -40 288
992
-328 656
-40 -32 -72 -56 -48 704
368 -16 592
-208 -24 -24 -24 -24 -24 -24 -24 -24 520
64 -32 -40 -48 776
-80 -8 -16 -24 -32 -40 -48 -56 624
-768 216
-576 408
992
992
992
-512 472
-752 232
-784 200
-432 -8 -8 -8 -16 -8 -8 -8 -8 -8 400
992
992
472 -96 -104 296
16 -72 416 -72 384
