20

6
8
15
-3
-2
2
-2
-1
4
-1
2
-1

10
-1
1
3
6
-3
15
13
6
14

15
2
-1
-1
11
11
-1
4
-1
-1
1

10
10
-1
-1
15
1
-1
11
13
6

3
-1
3
7
14
14
-4
-3
5
8
12

5
-1
3
9
1
-3
13
-2
14
-1

2
8
-2
12
-2
3
9
-1
15
-1

14
-1
5
-1
11
13
11
2
15
7

3
7
9
-3
-1
13
7
6
-1
3

1
13
-2
-1
15
-1
4
5
-2
15

11
3
-1
-1
4
-1
13
-1
2
-1

6
-1
12
7
4
-3
-1
-1
4
-1

10
13
-1
-1
3
-1
15
14
6
9

10
-1
4
-1
1
2
6
6
-4
-1
10
-1

1
-1
7
-1
11
7
-2
9
10
11
5

12
1
13
9
-3
2
-3
9
8
-1
15

2
-1
13
2
-2
4
-2
-1
2
7

11
-1
4
-1
6
13
-2
-1
8
2

3
4
-1
14
-1
1
-2
5
-1
-1

11
12
-1
-1
14
-1
1
10
6
-1
