8 -80 -48 -24 800
-48 -40 -80 -56 -16 -40 -72 584
64 -80 -80 -48 -32 -16 -56 -64 -24 -48 -72 -80 232
-8 -8 -56 -48 -40 -24 -56 -48 -24 -16 -32 544
-80 904
-24 -32 -56 -72 776
-24 48 -24 -8 -80 -48 -56 -72 568
-64 -32 -64 -16 -80 -16 -72 -40 544
56 -64 -16 -80 -40 696
40 -80 -72 -8 -32 -40 -56 -64 536
-56 16 -64 -72 -72 -56 608
8 -80 -16 -16 -32 -56 -24 -80 -8 600
-56 -8 -80 824
-24 -32 -56 -64 -8 -72 -40 -8 -40 -24 -72 -48 -48 -48 296
-16 -32 -40 880
-24 -32 -40 -24 -48 -40 -64 664
-8 976
-48 -24 -80 -16 -16 -56 -32 -48 -8 -72 -80 -24 -24 -80 272
-8 -48 -72 -16 816
24 -32 -32 -64 -8 792
