-40 -24 912
-24 -32 64 -56 -88 -72 608
-96 32 -80 136 -8 40 -40 -48 448
-16 -48 80 -96 -24 -32 -64 576
-8 8 -24 -80 -56 64 -24 -88 -96 472
-48 -8 88 -56 72 -88 584
-48 32 -48 24 -40 760
-40 -72 -48 -48 752
-8 8 -72 -64 -96 -80 -24 -32 -80 -96 352
-80 -48 56 -56 720
-56 -64 -40 16 -16 -8 -96 16 -96 -24 -56 416
-24 -56 8 -24 -56 8 -56 704
64 -96 816
992
-64 -72 -16 -88 -8 704
-56 928
168 -64 744
-72 8 -48 -80 -32 -48 112 -48 -96 -40 -64 256
-8 88 -56 -96 8 -16 -96 -56 -40 -32 416
-48 936
