23

5
6
-2
3
1
6
54

5
-1
78
3
-2
-1
56

124
-1
124

98
7
2
1
-1
-1
-1
-1
55
55
-2

80
2
6
5
-4
-3
-2
-1

5
5
5
5
5
5
5
5
5
-1
-1
-1
-1
-1
-1
-1
-1
-1

85
3
4
-3
2
-2
1

55
55
-2
45
3

6
-1
89
-1
124
-1

95
5
2
-3
-2
-1
5
4

124
-1
122
1
-2
1
-1
23
4
78

65
32
1
1
5
-3
1
-2

96
20
3
-3
2
-1
45
6

56
33
5
-1
-2
-1

6
6
6
6
6
6
6
6
6
6
6
6
-8
-8
-8
-8
-7

23
-1
23
23
-2
23
-2
32
-2

5
6
7
8
9
10
11
12
13
20
1
4
-12

14
17
21
13
-4
-2
9

35
35
12
35

5
6
9
12
32
38
-5
-5
-1

4
3
4
3
6
9
7
8
21
23
-10
-4
-6
-1

120
3
-1
60
10
10
-3
5

69
21
-1
32
-2
10
-2
