29

122
-1
13
-1

54
2
4
-1
-1

25
14
2
-3

16
-1
99
-1
22

53
-1
67
33

79
41
-2
10

108
-1
100
-1
100
-1
32
40
10
3
3
1

33
64
-2
12

30
3
2
-2
5
4
2
9
9
10

27
-1
22
20
1
10

20
26
-1
2
3
9

55
3
-2
10
2
12
-1

30
2
4
-3
3

104
4
-2
4
1
1

105
3
-1
34
12
1
9

57
-1
47
10
9
-1

57
32
10
-1
12
4
4

112
-1
39
21
-2

84
10
-1
1
1
1
8

33
22
12
-1

58
9
-1
9
2
-1

83
3
4
5
-1
2
3
4
5

56
10
9
-2

18
2
3
-3
5
7
8
-1

82
10
10
-1
12

120
-1
40
30
-1

8
107
-1
-1
81
25
4

51
12
10
-3
10
3
3

93
10
-1
2
2
