992
40 -24 -24 -80 -56 -48 -40 -8 -48 -48 496
24 -24 -72 -80 -80 -56 -80 520
-64 -8 40 -56 -8 -32 -16 -24 -48 -80 536
48 -80 848
-24 -40 -24 -16 -8 -72 -64 -64 -24 -64 -80 -40 376
24 -32 16 -16 -80 -72 -64 -40 -32 -56 480
-48 -16 -16 -64 -24 -48 -80 -40 592
104 -32 -56 -56 -48 -64 -80 -56 432
-48 64 -56 -56 -8 -72 640
-56 32 -16 -80 -80 -72 -72 -56 -72 -40 336
-48 -48 -64 -56 744
40 -16 8 -8 -32 -64 -80 -16 -72 -40 -48 -40 -64 360
-72 -48 -48 -24 -56 -80 -24 -8 568
8 -64 -8 -56 -56 -24 -32 -56 -80 536
-80 -24 -48 -40 768
-24 -56 -72 816
32 -8 -16 -56 -8 -64 -40 -48 656
48 -16 32 -56 -56 -32 -40 -40 -80 -64 -40 400
8 -8 16 -16 -24 -24 -80 -40 -80 -80 -72 -80 368
