30

17
-1

101

82

71
43

14

80

108
-1

71
-1
119

94

83

14

75
30

79

16

101

8

65

40

8
7
-1
-1
9
2
5
7
10
10
9
-7
1
-5

2
-1
5
10
4
-2
7
6
-3
2
10
5
8
8
2
5

5
2
8
2
8
4
-4
6
10
-3
2
7
5
7
4
8

10
3
6
-1
-1
-1
10
3
-2
1
10
8
7
-3
9
-5
-3
-3

4
8
8
8
-1
8
6
2
-3
2

7
5
8
9
-2
-1
2
10
-4
-1
8
-3
1
9
8
4
3
2
7

10
-1
4
1
5
3
-4
10
10
4
6
7
7

6
-1
8
-1
6
-1
4
-1
5
5
2
-1
1
-3
4

1
3
-1
5
5
6
3
9
-4
3
2
6

3
6
1
-3
-2
-1
6
-1
5
4
3
1
9
-3
9
4
4

6
2
7
-3
-2
6
4
-3
3
-3
2

2
2
-1
-1
2
4
8
3
-3
-1
-1
